3 Dia 2 - Importação e transformação – Oficinas de R - IX FBCP
…
Com esses resultados, sabemos que para o cargo de vereador(a), temos as seguintes categorias: eleito por QP (quociente partidário), eleito por média, suplente, não eleito e #NULO. Para o cargo de prefeito(a) e vice-prefeito(a), temos as seguintes categorias: eleito, 2º turno, não eleito.

3.6 Filtrando dados com filter()

A função filter() é utilizada para filtrar linhas de um data frame com base em condições específicas.

Por exemplo, podemos filtrar apenas as linhas com resultados de candidatos(as) a vereador(a), utilizando a coluna DS_CARGO (Descrição do Cargo). Para isso, utilizamos o operador de comparação == (igualdade):

dados_vereadores <- dados |>
  filter(DS_CARGO == "VEREADOR")

dados_vereadores

# A tibble: 1,016 × 50
   DT_GERACAO HH_GERACAO ANO_ELEICAO CD_TIPO_ELEICAO NM_TIPO_ELEICAO   NR_TURNO
   <chr>      <time>           <dbl>           <dbl> <chr>                <dbl>
 1 18/07/2025 12:30:11          2024               2 ELEIÇÃO ORDINÁRIA        1
 2 18/07/2025 12:30:11          2024               2 ELEIÇÃO ORDINÁRIA        1
 3 18/07/2025 12:30:11          2024               2 ELEIÇÃO ORDINÁRIA        1
 4 18/07/2025 12:30:11          2024               2 ELEIÇÃO ORDINÁRIA        1
 5 18/07/2025 12:30:11          2024               2 ELEIÇÃO ORDINÁRIA        1
 6 18/07/2025 12:30:11          2024               2 ELEIÇÃO ORDINÁRIA        1
 7 18/07/2025 12:30:11          2024               2 ELEIÇÃO ORDINÁRIA        1
 8 18/07/2025 12:30:11          2024               2 ELEIÇÃO ORDINÁRIA        1
 9 18/07/2025 12:30:11          2024               2 ELEIÇÃO ORDINÁRIA        1
10 18/07/2025 12:30:11          2024               2 ELEIÇÃO ORDINÁRIA        1
# ℹ 1,006 more rows
# ℹ 44 more variables: CD_ELEICAO <dbl>, DS_ELEICAO <chr>, DT_ELEICAO <chr>,
#   TP_ABRANGENCIA <chr>, SG_UF <chr>, SG_UE <dbl>, NM_UE <chr>,
#   CD_CARGO <dbl>, DS_CARGO <chr>, SQ_CANDIDATO <dbl>, NR_CANDIDATO <dbl>,
#   NM_CANDIDATO <chr>, NM_URNA_CANDIDATO <chr>, NM_SOCIAL_CANDIDATO <chr>,
#   NR_CPF_CANDIDATO <dbl>, DS_EMAIL <chr>, CD_SITUACAO_CANDIDATURA <dbl>,
#   DS_SITUACAO_CANDIDATURA <chr>, TP_AGREMIACAO <chr>, NR_PARTIDO <dbl>, …

Podemos também filtrar com mais de uma condição. Por exemplo, podemos filtrar apenas os resultados de candidatos(as) a vereador(a) que foram eleitos por quociente partidário (QP) ou por média. Neste caso, usamos o operador %in%, que permite verificar se um valor está presente em um vetor (c()) de valores.

dados_vereadores_eleitos <- dados_vereadores |>
  filter(DS_SIT_TOT_TURNO %in% c("ELEITO POR QP", "ELEITO POR MÉDIA"))

dados_vereadores_eleitos

# A tibble: 55 × 50
   DT_GERACAO HH_GERACAO ANO_ELEICAO CD_TIPO_ELEICAO NM_TIPO_ELEICAO   NR_TURNO
   <chr>      <time>           <dbl>           <dbl> <chr>                <dbl>
 1 18/07/2025 12:30:11          2024               2 ELEIÇÃO ORDINÁRIA        1
 2 18/07/2025 12:30:11          2024               2 ELEIÇÃO ORDINÁRIA        1
 3 18/07/2025 12:30:11          2024               2 ELEIÇÃO ORDINÁRIA        1
 4 18/07/2025 12:30:11          2024               2 ELEIÇÃO ORDINÁRIA        1
 5 18/07/2025 12:30:11          2024               2 ELEIÇÃO ORDINÁRIA        1
 6 18/07/2025 12:30:11          2024               2 ELEIÇÃO ORDINÁRIA        1
 7 18/07/2025 12:30:11          2024               2 ELEIÇÃO ORDINÁRIA        1
 8 18/07/2025 12:30:11          2024               2 ELEIÇÃO ORDINÁRIA        1
 9 18/07/2025 12:30:11          2024               2 ELEIÇÃO ORDINÁRIA        1
10 18/07/2025 12:30:11          2024               2 ELEIÇÃO ORDINÁRIA        1
# ℹ 45 more rows
# ℹ 44 more variables: CD_ELEICAO <dbl>, DS_ELEICAO <chr>, DT_ELEICAO <chr>,
#   TP_ABRANGENCIA <chr>, SG_UF <chr>, SG_UE <dbl>, NM_UE <chr>,
#   CD_CARGO <dbl>, DS_CARGO <chr>, SQ_CANDIDATO <dbl>, NR_CANDIDATO <dbl>,
#   NM_CANDIDATO <chr>, NM_URNA_CANDIDATO <chr>, NM_SOCIAL_CANDIDATO <chr>,
#   NR_CPF_CANDIDATO <dbl>, DS_EMAIL <chr>, CD_SITUACAO_CANDIDATURA <dbl>,
#   DS_SITUACAO_CANDIDATURA <chr>, TP_AGREMIACAO <chr>, NR_PARTIDO <dbl>, …

A tabela filtrada tem 55 linhas, ou seja, foram eleitos 55 vereadores(as) na cidade de São Paulo nas eleições de 2024.

Ao filtrar, podemos combinar várias condições utilizando os operadores lógicos (como o | (OU) e o ! (NEGAÇÃO)).

3.7 Selecionando colunas com select()

A função select() é utilizada para selecionar colunas específicas de um data frame.

Por exemplo, podemos selecionar apenas um conjunto de colunas de interesse:

dados_vereadores_eleitos |>
  select(NM_URNA_CANDIDATO, SG_PARTIDO, NM_PARTIDO)

# A tibble: 55 × 3
   NM_URNA_CANDIDATO           SG_PARTIDO NM_PARTIDO                      
   <chr>                       <chr>      <chr>                           
 1 SENIVAL MOURA               PT         PARTIDO DOS TRABALHADORES       
 2 SONAIRA FERNANDES           PL         PARTIDO LIBERAL                 
 3 ISAC FÉLIX                  PL         PARTIDO LIBERAL                 
 4 GILBERTO NASCIMENTO         PL         PARTIDO LIBERAL                 
 5 SILVIA DA BANCADA FEMINISTA PSOL       PARTIDO SOCIALISMO E LIBERDADE  
 6 RICARDO TEIXEIRA            UNIÃO      UNIÃO BRASIL                    
 7 RUTE COSTA                  PL         PARTIDO LIBERAL                 
 8 JOÃO JORGE                  MDB        MOVIMENTO DEMOCRÁTICO BRASILEIRO
 9 SILVINHO                    UNIÃO      UNIÃO BRASIL                    
10 SILVÃO LEITE                UNIÃO      UNIÃO BRASIL                    
# ℹ 45 more rows

Podemos também indicar quais colunas queremos excluir, utilizando o operador - antes do nome da coluna. Por exemplo, para excluir as colunas ano e uf, podemos fazer o seguinte:

dados_vereadores_eleitos |>
  select(-DT_GERACAO, -HH_GERACAO)

# A tibble: 55 × 48
   ANO_ELEICAO CD_TIPO_ELEICAO NM_TIPO_ELEICAO   NR_TURNO CD_ELEICAO DS_ELEICAO 
         <dbl>           <dbl> <chr>                <dbl>      <dbl> <chr>      
 1        2024               2 ELEIÇÃO ORDINÁRIA        1        619 Eleições M…
 2        2024               2 ELEIÇÃO ORDINÁRIA        1        619 Eleições M…
 3        2024               2 ELEIÇÃO ORDINÁRIA        1        619 Eleições M…
 4        2024               2 ELEIÇÃO ORDINÁRIA        1        619 Eleições M…
 5        2024               2 ELEIÇÃO ORDINÁRIA        1        619 Eleições M…
 6        2024               2 ELEIÇÃO ORDINÁRIA        1        619 Eleições M…
 7        2024               2 ELEIÇÃO ORDINÁRIA        1        619 Eleições M…
 8        2024               2 ELEIÇÃO ORDINÁRIA        1        619 Eleições M…
 9        2024               2 ELEIÇÃO ORDINÁRIA        1        619 Eleições M…
10        2024               2 ELEIÇÃO ORDINÁRIA        1        619 Eleições M…
# ℹ 45 more rows
# ℹ 42 more variables: DT_ELEICAO <chr>, TP_ABRANGENCIA <chr>, SG_UF <chr>,
#   SG_UE <dbl>, NM_UE <chr>, CD_CARGO <dbl>, DS_CARGO <chr>,
#   SQ_CANDIDATO <dbl>, NR_CANDIDATO <dbl>, NM_CANDIDATO <chr>,
#   NM_URNA_CANDIDATO <chr>, NM_SOCIAL_CANDIDATO <chr>, NR_CPF_CANDIDATO <dbl>,
#   DS_EMAIL <chr>, CD_SITUACAO_CANDIDATURA <dbl>,
#   DS_SITUACAO_CANDIDATURA <chr>, TP_AGREMIACAO <chr>, NR_PARTIDO <dbl>, …
…
3.9 Agrupando dados com group_by()

A função group_by() é utilizada para agrupar os dados com base em uma ou mais colunas. Isso é especialmente útil quando queremos aplicar funções de resumo a cada grupo.

Por exemplo, podemos agrupar os dados por colunas relacionado aos partidos:

dados_vereadores_eleitos |>
  group_by(SG_PARTIDO, NM_PARTIDO) 

# A tibble: 55 × 50
# Groups:   SG_PARTIDO, NM_PARTIDO [13]
   DT_GERACAO HH_GERACAO ANO_ELEICAO CD_TIPO_ELEICAO NM_TIPO_ELEICAO   NR_TURNO
   <chr>      <time>           <dbl>           <dbl> <chr>                <dbl>
 1 18/07/2025 12:30:11          2024               2 ELEIÇÃO ORDINÁRIA        1
 2 18/07/2025 12:30:11          2024               2 ELEIÇÃO ORDINÁRIA        1
 3 18/07/2025 12:30:11          2024               2 ELEIÇÃO ORDINÁRIA        1
 4 18/07/2025 12:30:11          2024               2 ELEIÇÃO ORDINÁRIA        1
 5 18/07/2025 12:30:11          2024               2 ELEIÇÃO ORDINÁRIA        1
 6 18/07/2025 12:30:11          2024               2 ELEIÇÃO ORDINÁRIA        1
 7 18/07/2025 12:30:11          2024               2 ELEIÇÃO ORDINÁRIA        1
 8 18/07/2025 12:30:11          2024               2 ELEIÇÃO ORDINÁRIA        1
 9 18/07/2025 12:30:11          2024               2 ELEIÇÃO ORDINÁRIA        1
10 18/07/2025 12:30:11          2024               2 ELEIÇÃO ORDINÁRIA        1
# ℹ 45 more rows
# ℹ 44 more variables: CD_ELEICAO <dbl>, DS_ELEICAO <chr>, DT_ELEICAO <chr>,
#   TP_ABRANGENCIA <chr>, SG_UF <chr>, SG_UE <dbl>, NM_UE <chr>,
#   CD_CARGO <dbl>, DS_CARGO <chr>, SQ_CANDIDATO <dbl>, NR_CANDIDATO <dbl>,
#   NM_CANDIDATO <chr>, NM_URNA_CANDIDATO <chr>, NM_SOCIAL_CANDIDATO <chr>,
#   NR_CPF_CANDIDATO <dbl>, DS_EMAIL <chr>, CD_SITUACAO_CANDIDATURA <dbl>,
#   DS_SITUACAO_CANDIDATURA <chr>, TP_AGREMIACAO <chr>, NR_PARTIDO <dbl>, …
…
